Software R para aplicações em IA - 5 Modelagem e Análise de Texto
…
Média de emoções: Calculamos também as médias para cada emoção específica

##Colocar cada sentimento em uma coluna
Senti=TF2%>%
  pivot_wider(names_from = sentiment, #necessário pacote tidyr
              values_from = n,
              values_fill = 0)%>%
  group_by(id)%>%
  mutate(escore=sum(positive)-sum(negative))%>%
  ungroup()

##Visu
Senti[1:2]

# A tibble: 2,000 × 2
      id anger
   <dbl> <int>
 1     1     2
 2     2     1
 3     3     0
 4     4     0
 5     5     0
 6     6     1
 7     7     1
 8     8     1
 9     9     0
10    10     0
# ℹ 1,990 more rows
…
